filename,width,height,class,xmin,ymin,xmax,ymax
dresses_001.jpg,174,261,dresses,35,3,143,261
dresses_002.jpg,261,261,dresses,67,1,211,261
dresses_003.jpg,242,261,dresses,22,6,229,261
dresses_006.jpg,288,292,dresses,82,11,226,282
dresses_008.jpg,292,292,dresses,88,12,209,284
dresses_010.jpg,288,292,dresses,57,4,186,276
dresses_011.jpg,292,292,dresses,59,1,232,290
dresses_012.jpg,354,354,dresses,120,30,274,346
dresses_015.jpg,219,261,dresses,45,1,199,261
dresses_016.jpg,194,261,dresses,34,3,182,249
dresses_017.jpg,354,354,dresses,82,18,302,346
dresses_019.jpg,255,292,dresses,66,10,218,249
dresses_021.jpg,292,292,dresses,68,23,229,286
dresses_022.jpg,292,292,dresses,51,3,231,277
dresses_023.jpg,241,292,dresses,31,1,237,277
dresses_024.jpg,292,292,dresses,70,1,280,292
dresses_025.jpg,261,261,dresses,42,5,167,240
dresses_026.jpg,292,292,dresses,56,16,217,281
dresses_027.jpg,292,292,dresses,78,16,224,286
dresses_028.jpg,260,261,dresses,71,45,189,248
dresses_029.jpg,283,292,dresses,79,31,211,266
dresses_030.jpg,292,292,dresses,75,14,217,292
dresses_031.jpg,229,261,dresses,58,1,207,257
dresses_032.jpg,292,292,dresses,69,3,236,289
dresses_033.jpg,292,292,dresses,40,9,243,261
dresses_036.jpg,183,275,dresses,50,52,130,242
dresses_038.jpg,159,318,dresses,40,56,111,226
dresses_039.jpg,216,261,dresses,36,1,178,245
dresses_040.jpg,208,242,dresses,29,44,130,179
dresses_041.jpg,183,275,dresses,38,49,141,217
dresses_042.jpg,225,225,dresses,71,29,156,191
dresses_043.jpg,174,290,dresses,41,46,125,172
dresses_044.jpg,177,284,dresses,24,43,155,253
dresses_045.jpg,183,275,dresses,35,3,158,271
dresses_046.jpg,292,292,dresses,89,13,213,287
dresses_047.jpg,183,275,dresses,61,41,128,150
dresses_048.jpg,292,292,dresses,58,11,238,270
dresses_049.jpg,211,239,dresses,68,2,163,239
dresses_050.jpg,198,254,dresses,40,36,134,240
dresses_053.jpg,183,275,dresses,55,41,149,229
dresses_054.jpg,186,270,dresses,45,36,157,257
dresses_055.jpg,194,259,dresses,26,52,159,243
dresses_057.jpg,174,290,dresses,7,41,174,287
dresses_058.jpg,186,270,dresses,62,45,133,215
dresses_059.jpg,190,266,dresses,69,49,147,198
dresses_061.jpg,194,259,dresses,19,51,147,255
dresses_062.jpg,174,290,dresses,59,46,131,175
dresses_063.jpg,198,254,dresses,39,48,159,245
dresses_064.jpg,177,284,dresses,43,46,130,273
dresses_065.jpg,183,275,dresses,46,55,140,234
dresses_066.jpg,186,270,dresses,10,52,164,253
dresses_067.jpg,183,275,dresses,41,74,148,203
dresses_068.jpg,183,275,dresses,45,42,151,170
dresses_070.jpg,186,270,dresses,60,44,127,265
dresses_071.jpg,184,274,dresses,24,40,119,268
dresses_072.jpg,159,318,dresses,30,56,138,200
dresses_073.jpg,180,280,dresses,51,40,167,247
dresses_074.jpg,183,275,dresses,43,75,143,255
dresses_075.jpg,225,225,dresses,71,39,150,206
dresses_077.jpg,183,275,dresses,52,33,138,170
dresses_078.jpg,183,275,dresses,21,48,158,233
dresses_079.jpg,178,283,dresses,54,70,178,266
dresses_080.jpg,225,225,dresses,59,36,151,194
dresses_082.jpg,192,262,dresses,42,48,150,241
dresses_083.jpg,184,274,dresses,42,33,136,213
dresses_085.jpg,183,275,dresses,28,62,157,262
dresses_086.jpg,174,290,dresses,12,45,147,254
dresses_089.jpg,183,275,dresses,57,49,134,173
dresses_090.jpg,224,224,dresses,58,49,176,205
dresses_091.jpg,177,284,dresses,39,54,130,231
dresses_092.jpg,183,275,dresses,53,43,149,260
dresses_093.jpg,183,275,dresses,56,42,130,165
dresses_094.jpg,183,275,dresses,29,3,156,272
dresses_096.jpg,183,275,dresses,46,41,123,182
dresses_097.jpg,174,290,dresses,36,40,133,288
dresses_098.jpg,183,275,dresses,53,47,147,272
dresses_099.jpg,183,275,dresses,68,44,177,208
dresses_100.jpg,224,224,dresses,52,45,174,214
dresses_102.jpg,183,275,dresses,58,35,135,230
dresses_103.jpg,188,268,dresses,26,60,169,265
dresses_105.jpg,197,256,dresses,50,39,176,238
dresses_106.jpg,184,274,dresses,12,39,130,222
dresses_109.jpg,199,254,dresses,32,68,178,235
dresses_110.jpg,187,270,dresses,58,43,147,227
dresses_111.jpg,225,225,dresses,7,13,112,208
dresses_112.jpg,183,275,dresses,44,70,139,275
dresses_113.jpg,194,259,dresses,32,45,168,254
dresses_114.jpg,183,275,dresses,55,50,123,262
dresses_117.jpg,183,275,dresses,39,76,136,251
dresses_118.jpg,188,268,dresses,24,82,167,261
dresses_120.jpg,186,270,dresses,59,37,123,233
dresses_121.jpg,183,275,dresses,49,1,141,267
dresses_122.jpg,174,290,dresses,25,43,163,281
dresses_123.jpg,176,286,dresses,52,48,122,251
dresses_125.jpg,183,275,dresses,47,81,135,228
dresses_126.jpg,183,275,dresses,51,31,125,217
dresses_127.jpg,183,275,dresses,52,55,176,235
dresses_128.jpg,184,273,dresses,46,52,144,222
dresses_129.jpg,183,275,dresses,24,51,142,210
dresses_130.jpg,183,275,dresses,27,28,132,235
dresses_131.jpg,183,275,dresses,35,72,148,260
dresses_132.jpg,314,160,dresses,215,49,310,160
dresses_134.jpg,183,276,dresses,46,43,133,152
dresses_135.jpg,183,275,dresses,44,47,129,205
dresses_136.jpg,197,256,dresses,50,36,141,202
dresses_138.jpg,206,245,dresses,53,42,162,206
dresses_139.jpg,199,254,dresses,23,43,135,199
dresses_140.jpg,177,284,dresses,28,36,157,191
dresses_142.jpg,183,275,dresses,30,47,166,265
dresses_143.jpg,199,253,dresses,50,38,157,219
dresses_144.jpg,184,274,dresses,57,40,170,228
dresses_145.jpg,183,275,dresses,29,49,152,263
dresses_146.jpg,192,262,dresses,71,33,167,207
dresses_147.jpg,183,275,dresses,61,52,171,224
dresses_148.jpg,180,280,dresses,30,73,157,259
dresses_149.jpg,188,268,dresses,38,56,174,252
dresses_150.jpg,159,318,dresses,31,71,147,300
Handbag_001.jpg,261,261,handbags,2,4,253,259
Handbag_002.jpg,253,323,handbags,2,5,253,316
Handbag_003.jpg,261,261,handbags,4,1,257,261
Handbag_004.jpg,258,261,handbags,14,3,242,257
Handbag_005.jpg,292,292,handbags,13,1,280,292
Handbag_009.jpg,292,292,handbags,2,2,284,291
Handbag_010.jpg,292,292,handbags,9,71,291,286
Handbag_011.jpg,214,261,handbags,7,2,199,261
Handbag_012.jpg,261,261,handbags,7,5,243,260
Handbag_014.jpg,292,292,handbags,12,3,286,290
Handbag_015.jpg,261,261,handbags,3,43,261,222
Handbag_016.jpg,292,292,handbags,8,8,287,282
Handbag_017.jpg,244,261,handbags,6,3,227,261
Handbag_019.jpg,286,292,handbags,29,3,260,292
Handbag_020.jpg,261,261,handbags,8,1,261,254
Handbag_021.jpg,292,292,handbags,30,2,254,292
Handbag_022.jpg,261,261,handbags,6,12,261,241
Handbag_024.jpg,292,292,handbags,75,1,224,289
Handbag_025.jpg,261,261,handbags,6,18,261,241
Handbag_026.jpg,292,292,handbags,2,80,292,289
Handbag_027.jpg,261,261,handbags,17,1,254,261
Handbag_028.jpg,261,261,handbags,2,7,261,240
Handbag_029.jpg,261,261,handbags,12,7,252,236
Handbag_030.jpg,292,292,handbags,27,4,263,292
Handbag_031.jpg,292,292,handbags,14,1,292,288
Handbag_032.jpg,261,261,handbags,5,34,261,233
Handbag_034.jpg,261,261,handbags,6,3,248,261
Handbag_035.jpg,261,261,handbags,5,39,261,220
Handbag_038.jpg,223,226,handbags,3,3,216,225
Handbag_039.jpg,275,183,handbags,63,22,228,170
Handbag_041.jpg,275,183,handbags,56,19,241,175
Handbag_042.jpg,225,225,handbags,21,7,209,218
Handbag_043.jpg,225,225,handbags,24,18,186,199
Handbag_044.jpg,225,225,handbags,41,38,176,188
Handbag_045.jpg,223,226,handbags,9,4,222,225
Handbag_046.jpg,199,254,handbags,23,39,181,229
Handbag_047.jpg,275,183,handbags,45,4,235,180
Handbag_050.jpg,219,230,handbags,67,1,218,224
Handbag_051.jpg,225,225,handbags,8,1,223,217
Handbag_052.jpg,225,225,handbags,5,20,224,220
Handbag_053.jpg,183,275,handbags,30,13,157,249
Handbag_054.jpg,275,183,handbags,68,5,211,178
Handbag_055.jpg,193,261,handbags,42,56,167,249
Handbag_056.jpg,225,225,handbags,8,1,223,225
Handbag_057.jpg,276,183,handbags,97,19,217,169
Handbag_058.jpg,193,261,handbags,37,54,163,246
Handbag_059.jpg,225,225,handbags,8,11,225,224
Handbag_060.jpg,199,253,handbags,10,8,199,237
Handbag_061.jpg,225,225,handbags,45,21,182,201
Handbag_062.jpg,225,225,handbags,32,7,208,225
Handbag_063.jpg,225,225,handbags,5,9,223,222
Handbag_064.jpg,181,279,handbags,34,96,158,265
Handbag_065.jpg,225,225,handbags,36,39,200,189
Handbag_067.jpg,225,225,handbags,6,25,178,194
Handbag_068.jpg,193,261,handbags,17,72,183,206
Handbag_071.jpg,225,225,handbags,88,6,219,197
Handbag_072.jpg,216,233,handbags,29,1,192,206
Handbag_073.jpg,225,225,handbags,21,4,218,225
Handbag_074.jpg,225,225,handbags,12,14,217,225
Handbag_075.jpg,225,225,handbags,54,46,173,195
Handbag_076.jpg,225,225,handbags,32,3,195,225
Handbag_077.jpg,183,276,handbags,6,12,182,258
Handbag_078.jpg,222,227,handbags,2,1,222,221
Handbag_079.jpg,199,253,handbags,29,9,175,243
Handbag_080.jpg,201,250,handbags,21,30,180,229
Handbag_081.jpg,225,225,handbags,12,36,202,204
Handbag_082.jpg,224,224,handbags,58,102,167,217
Handbag_083.jpg,194,259,handbags,4,82,192,242
Handbag_085.jpg,225,225,handbags,6,16,221,225
Handbag_086.jpg,225,225,handbags,11,44,216,210
Handbag_087.jpg,275,183,handbags,46,9,232,176
Handbag_088.jpg,224,224,handbags,33,33,175,219
Handbag_089.jpg,225,225,handbags,25,38,201,221
Handbag_091.jpg,225,225,handbags,29,23,212,200
Handbag_093.jpg,225,225,handbags,6,18,221,220
Handbag_094.jpg,225,225,handbags,24,4,199,225
Handbag_097.jpg,183,275,handbags,16,40,173,258
Handbag_098.jpg,199,253,handbags,22,2,172,253
Handbag_099.jpg,224,224,handbags,10,39,217,211
Handbag_100.jpg,266,190,handbags,50,7,225,182
Handbag_101.jpg,259,194,handbags,27,3,153,124
Handbag_102.jpg,275,183,handbags,58,15,229,171
Handbag_103.jpg,225,225,handbags,24,6,208,205
Handbag_104.jpg,225,225,handbags,43,13,178,207
Handbag_105.jpg,225,225,handbags,15,23,211,207
Handbag_106.jpg,225,225,handbags,36,36,186,195
Handbag_107.jpg,225,225,handbags,29,9,202,225
Handbag_109.jpg,225,225,handbags,24,42,188,189
Handbag_111.jpg,225,225,handbags,9,7,207,222
Handbag_113.jpg,332,152,handbags,177,17,247,151
Handbag_114.jpg,272,185,handbags,1,45,272,165
Handbag_118.jpg,280,180,handbags,62,3,216,135
Handbag_119.jpg,201,250,handbags,26,84,174,220
Handbag_120.jpg,199,253,handbags,25,58,162,224
Handbag_121.jpg,205,246,handbags,27,30,190,222
Handbag_122.jpg,225,225,handbags,8,1,219,223
Handbag_123.jpg,193,261,handbags,13,66,193,246
Handbag_124.jpg,224,224,handbags,29,2,219,224
Handbag_125.jpg,225,225,handbags,9,67,225,208
Handbag_126.jpg,225,225,handbags,36,74,179,216
Handbag_127.jpg,197,256,handbags,1,26,197,237
Handbag_128.jpg,224,224,handbags,8,31,220,224
Handbag_131.jpg,225,225,handbags,40,7,193,220
Handbag_132.jpg,199,253,handbags,15,16,182,247
Handbag_133.jpg,318,159,handbags,1,1,115,119
Handbag_134.jpg,201,251,handbags,8,5,194,238
Handbag_135.jpg,300,168,handbags,120,26,248,143
Handbag_137.jpg,275,183,handbags,5,37,75,176
Handbag_138.jpg,225,225,handbags,11,4,199,225
Handbag_139.jpg,225,225,handbags,20,12,213,219
Handbag_140.jpg,225,225,handbags,17,13,208,204
Handbag_141.jpg,211,239,handbags,26,70,194,233
Handbag_142.jpg,194,259,handbags,11,20,189,256
Handbag_143.jpg,225,225,handbags,56,2,173,216
Handbag_145.jpg,225,225,handbags,6,3,217,208
Handbag_146.jpg,224,224,handbags,3,19,219,224
Handbag_147.jpg,275,183,handbags,59,1,219,180
Handbag_149.jpg,225,225,handbags,60,91,172,223
Handbag_151.jpg,291,173,handbags,5,1,291,155
Handbag_152.jpg,225,225,handbags,52,6,170,209
Handbag_153.jpg,197,256,handbags,40,21,164,232
Handbag_154.jpg,217,233,handbags,13,1,199,233
Handbag_155.jpg,225,225,handbags,1,14,225,223
Handbag_156.jpg,225,225,handbags,24,8,221,209
Handbag_157.jpg,225,225,handbags,18,6,215,225
Handbag_158.jpg,275,183,handbags,54,16,219,162
Handbag_161.jpg,225,225,handbags,12,6,214,225
Handbag_162.jpg,225,225,handbags,23,45,217,199
Handbag_163.jpg,194,259,handbags,24,9,167,223
jacket_001.jpg,292,292,jacket,42,10,248,253
jacket_002.jpg,274,292,jacket,61,20,212,256
jacket_003.jpg,210,261,jacket,6,12,210,250
jacket_004.jpg,261,261,jacket,64,2,207,261
jacket_005.jpg,292,292,jacket,25,9,265,292
jacket_006.jpg,292,292,jacket,14,43,291,292
jacket_007.jpg,250,292,jacket,26,6,234,292
jacket_008.jpg,292,292,jacket,35,9,259,292
jacket_009.jpg,196,261,jacket,43,34,150,261
jacket_010.jpg,250,292,jacket,17,5,217,292
jacket_011.jpg,252,261,jacket,14,1,252,248
jacket_012.jpg,292,292,jacket,24,1,262,292
jacket_013.jpg,292,292,jacket,32,23,288,270
jacket_014.jpg,261,261,jacket,38,3,247,259
jacket_015.jpg,292,292,jacket,40,16,259,290
jacket_016.jpg,261,261,jacket,5,10,261,252
jacket_017.jpg,238,261,jacket,17,1,217,259
jacket_018.jpg,261,261,jacket,9,6,242,260
jacket_019.jpg,186,270,jacket,9,56,164,225
jacket_020.jpg,261,261,jacket,30,2,215,261
jacket_025.jpg,183,275,jacket,23,25,159,228
jacket_026.jpg,250,261,jacket,16,2,230,261
jacket_027.jpg,208,243,jacket,9,9,197,227
jacket_028.jpg,225,225,jacket,8,35,225,197
jacket_029.jpg,292,292,jacket,28,7,266,287
jacket_030.jpg,258,261,jacket,12,4,248,261
jacket_031.jpg,261,261,jacket,39,5,220,260
jacket_032.jpg,197,261,jacket,4,3,189,261
jacket_033.jpg,192,262,jacket,7,39,173,218
jacket_034.jpg,261,261,jacket,27,3,231,261
jacket_036.jpg,225,225,jacket,29,3,205,222
jacket_037.jpg,225,225,jacket,19,8,186,225
jacket_041.jpg,225,225,jacket,30,5,201,225
jacket_042.jpg,225,225,jacket,15,3,193,225
jacket_043.jpg,222,227,jacket,5,2,214,226
jacket_045.jpg,225,225,jacket,1,11,225,214
jacket_046.jpg,225,225,jacket,48,29,191,210
jacket_048.jpg,225,225,jacket,33,7,202,225
jacket_049.jpg,183,275,jacket,8,15,180,239
jacket_050.jpg,225,225,jacket,23,1,203,224
jacket_053.jpg,251,201,jacket,91,32,243,185
jacket_054.jpg,183,275,jacket,10,5,171,275
jacket_056.jpg,220,229,jacket,3,3,220,226
jacket_057.jpg,202,250,jacket,5,2,202,247
jacket_058.jpg,225,225,jacket,31,1,207,225
jacket_059.jpg,201,251,jacket,29,37,177,239
jacket_060.jpg,192,262,jacket,16,37,192,231
jacket_061.jpg,194,259,jacket,12,33,192,219
jacket_062.jpg,183,275,jacket,1,26,180,204
jacket_063.jpg,205,246,jacket,7,21,201,246
jacket_064.jpg,198,254,jacket,5,5,198,252
jacket_066.jpg,224,225,jacket,36,7,183,225
jacket_067.jpg,209,241,jacket,8,7,205,241
jacket_068.jpg,198,254,jacket,3,9,185,238
jacket_069.jpg,194,259,jacket,3,18,194,239
jacket_070.jpg,194,259,jacket,1,13,194,230
jacket_073.jpg,266,190,jacket,22,1,235,190
jacket_074.jpg,311,162,jacket,90,4,222,162
jacket_075.jpg,194,259,jacket,7,65,163,259
jacket_076.jpg,177,284,jacket,13,27,170,259
jacket_077.jpg,198,255,jacket,22,9,188,208
jacket_078.jpg,225,225,jacket,10,3,219,221
jacket_079.jpg,225,225,jacket,15,6,222,222
jacket_081.jpg,196,258,jacket,10,44,193,199
jacket_082.jpg,225,225,jacket,42,14,197,209
jacket_084.jpg,201,251,jacket,34,50,188,230
jacket_085.jpg,183,275,jacket,11,124,159,275
jacket_086.jpg,225,225,jacket,41,6,192,204
jacket_088.jpg,194,259,jacket,12,6,194,236
jacket_089.jpg,225,225,jacket,21,5,210,225
jacket_091.jpg,225,225,jacket,15,8,215,225
jacket_092.jpg,224,225,jacket,52,27,191,208
jacket_093.jpg,194,259,jacket,24,18,179,211
jacket_095.jpg,207,244,jacket,18,6,197,239
jacket_096.jpg,200,252,jacket,13,2,200,205
jacket_097.jpg,225,225,jacket,20,6,210,223
jacket_098.jpg,201,251,jacket,25,45,193,223
jacket_099.jpg,187,270,jacket,9,61,177,238
jacket_101.jpg,245,205,jacket,28,4,212,201
jacket_102.jpg,225,225,jacket,18,1,200,225
jacket_103.jpg,201,251,jacket,27,39,176,228
jacket_104.jpg,225,225,jacket,19,8,210,224
jacket_105.jpg,225,225,jacket,6,9,222,225
jacket_107.jpg,183,275,jacket,6,4,175,266
jacket_109.jpg,195,259,jacket,8,58,190,211
jacket_110.jpg,222,227,jacket,32,2,195,226
jacket_111.jpg,225,225,jacket,22,3,208,215
jacket_112.jpg,209,241,jacket,7,1,193,235
jacket_113.jpg,225,225,jacket,33,5,196,221
jacket_114.jpg,225,225,jacket,22,3,210,225
jacket_116.jpg,275,183,jacket,47,1,204,181
jacket_117.jpg,201,251,jacket,20,7,177,251
jacket_118.jpg,202,250,jacket,9,18,202,226
jacket_119.jpg,183,275,jacket,8,17,178,247
jacket_120.jpg,198,255,jacket,6,30,197,255
jacket_122.jpg,201,250,jacket,17,10,196,230
jacket_123.jpg,225,225,jacket,65,9,192,188
jacket_124.jpg,224,224,jacket,23,10,215,190
jacket_125.jpg,183,275,jacket,8,25,178,220
jacket_126.jpg,183,275,jacket,15,35,174,248
jacket_127.jpg,199,254,jacket,5,2,184,249
jacket_128.jpg,201,251,jacket,34,12,168,232
jacket_129.jpg,183,275,jacket,12,23,183,269
jacket_130.jpg,275,183,jacket,26,7,250,177
jacket_131.jpg,198,254,jacket,25,59,179,227
jacket_133.jpg,225,225,jacket,27,2,191,211
jacket_134.jpg,225,225,jacket,7,15,213,210
jacket_135.jpg,225,225,jacket,36,1,198,225
jacket_136.jpg,222,227,jacket,22,12,200,227
jacket_137.jpg,225,225,jacket,7,12,217,225
jacket_139.jpg,240,210,jacket,60,8,194,170
jacket_141.jpg,212,238,jacket,10,1,200,237
jacket_142.jpg,208,243,jacket,10,1,190,241
jacket_143.jpg,170,296,jacket,3,21,170,275
jacket_144.jpg,239,211,jacket,32,13,199,211
jacket_145.jpg,225,225,jacket,39,7,196,219
jacket_147.jpg,225,225,jacket,18,1,186,225
jacket_148.jpg,225,225,jacket,19,18,208,225
jacket_149.jpg,284,177,jacket,74,5,216,164
jacket_150.jpg,201,251,jacket,16,36,193,227
jacket_151.jpg,225,225,jacket,16,5,219,222
jacket_152.jpg,194,259,jacket,10,3,191,259
jacket_153.jpg,225,225,jacket,6,2,202,225
jacket_154.jpg,174,289,jacket,3,3,174,191
jacket_156.jpg,201,251,jacket,20,12,201,227
jacket_157.jpg,225,225,jacket,41,46,178,225
jacket_159.jpg,225,225,jacket,29,9,186,214
jacket_160.jpg,225,225,jacket,58,48,177,223
jacket_161.jpg,275,184,jacket,1,13,273,172
jacket_162.jpg,201,251,jacket,15,51,193,248
jacket_163.jpg,225,225,jacket,12,4,205,225
jacket_164.jpg,224,224,jacket,44,42,171,183
jacket_166.jpg,206,245,jacket,19,4,201,245
jacket_167.jpg,201,251,jacket,8,7,196,251
Jeans_001.jpg,299,340,jeans,80,1,211,323
Jeans_002.jpg,307,340,jeans,105,13,201,340
Jeans_003.jpg,225,225,jeans,67,19,143,186
Jeans_004.jpg,225,225,jeans,87,75,138,202
Jeans_005.jpg,211,239,jeans,63,2,143,239
Jeans_006.jpg,202,250,jeans,52,12,152,226
Jeans_007.jpg,202,250,jeans,51,10,160,225
Jeans_009.jpg,202,250,jeans,60,7,152,227
Jeans_012.jpg,275,183,jeans,100,7,173,158
Jeans_014.jpg,225,225,jeans,59,33,172,199
Jeans_015.jpg,318,159,jeans,120,15,202,152
Jeans_016.jpg,225,225,jeans,81,100,134,199
Jeans_017.jpg,208,242,jeans,68,72,138,197
Jeans_018.jpg,225,225,jeans,62,51,171,193
Jeans_019.jpg,300,168,jeans,166,1,267,153
Jeans_020.jpg,213,237,jeans,27,14,133,198
Jeans_021.jpg,299,168,jeans,112,7,182,136
Jeans_023.jpg,225,225,jeans,62,91,152,207
Jeans_024.jpg,225,225,jeans,36,19,181,190
Jeans_025.jpg,225,225,jeans,1,9,118,193
Jeans_027.jpg,225,225,jeans,73,98,141,203
Jeans_028.jpg,225,225,jeans,67,10,147,201
Jeans_030.jpg,300,168,jeans,25,22,128,168
Jeans_031.jpg,225,225,jeans,79,104,139,206
Jeans_032.jpg,225,225,jeans,63,9,162,198
Jeans_033.jpg,279,181,jeans,135,53,203,173
Jeans_034.jpg,224,224,jeans,70,8,147,216
Jeans_035.jpg,225,225,jeans,80,91,135,205
Jeans_037.jpg,224,224,jeans,78,87,142,200
Jeans_039.jpg,225,225,jeans,63,25,149,204
Jeans_040.jpg,249,202,jeans,82,75,142,181
Jeans_042.jpg,213,237,jeans,29,16,121,220
Jeans_043.jpg,284,177,jeans,54,51,95,128
Jeans_044.jpg,275,183,jeans,120,87,184,183
Jeans_046.jpg,229,220,jeans,89,90,135,177
Jeans_047.jpg,206,244,jeans,26,83,108,216
Jeans_048.jpg,275,183,jeans,106,62,161,156
Jeans_050.jpg,289,174,jeans,104,76,176,156
Jeans_055.jpg,325,380,jeans,72,4,241,377
Jeans_056.jpg,306,380,jeans,58,3,268,380
Jeans_057.jpg,268,380,jeans,62,3,206,318
Jeans_058.jpg,209,241,jeans,39,24,140,206
Jeans_059.jpg,208,242,jeans,54,1,160,233
Jeans_060.jpg,205,246,jeans,42,1,159,244
Jeans_061.jpg,203,249,jeans,45,8,158,214
Jeans_062.jpg,225,225,jeans,61,11,158,218
Jeans_063.jpg,209,241,jeans,62,26,151,214
Jeans_064.jpg,225,225,jeans,26,16,91,191
Jeans_065.jpg,262,192,jeans,93,11,157,173
Jeans_066.jpg,224,224,jeans,58,15,155,179
Jeans_067.jpg,275,183,jeans,56,1,275,183
Jeans_068.jpg,225,225,jeans,1,10,111,192
Jeans_069.jpg,202,250,jeans,44,28,157,235
Jeans_070.jpg,305,340,jeans,53,1,245,340
Jeans_071.jpg,302,380,jeans,73,1,229,380
Jeans_072.jpg,286,380,jeans,69,1,214,376
Jeans_073.jpg,308,340,jeans,98,3,215,340
Jeans_074.jpg,287,380,jeans,70,1,214,376
Jeans_076.jpg,284,380,jeans,74,1,223,372
Jeans_077.jpg,268,380,jeans,67,1,204,292
Jeans_079.jpg,225,225,jeans,23,72,93,203
Jeans_080.jpg,225,225,jeans,1,9,112,181
Jeans_081.jpg,225,225,jeans,119,92,199,208
Jeans_083.jpg,225,225,jeans,62,92,181,225
Jeans_084.jpg,318,159,jeans,116,5,204,156
Jeans_085.jpg,224,225,jeans,83,131,148,188
Jeans_086.jpg,318,159,jeans,153,14,233,130
Jeans_087.jpg,225,225,jeans,75,24,147,181
Jeans_089.jpg,318,159,jeans,134,71,181,134
Jeans_090.jpg,225,225,jeans,110,124,112,130
Jeans_090.jpg,225,225,jeans,121,17,220,180
Jeans_091.jpg,300,168,jeans,167,52,217,140
Jeans_092.jpg,318,159,jeans,117,31,208,130
Jeans_093.jpg,300,168,jeans,230,7,300,85
Jeans_094.jpg,225,225,jeans,124,10,203,199
Jeans_095.jpg,229,220,jeans,160,95,210,199
Jeans_096.jpg,225,225,jeans,85,78,152,218
Jeans_097.jpg,225,225,jeans,171,137,217,169
Jeans_098.jpg,225,225,jeans,110,57,222,164
Jeans_100.jpg,225,225,jeans,63,92,147,199
Jeans_101.jpg,259,194,jeans,160,81,216,167
Jeans_102.jpg,225,225,jeans,68,47,148,179
Jeans_103.jpg,225,225,jeans,154,83,217,139
Jeans_105.jpg,225,225,jeans,24,4,92,130
Jeans_106.jpg,232,217,jeans,7,12,98,109
Jeans_107.jpg,225,225,jeans,5,23,144,213
Jeans_110.jpg,325,380,jeans,17,21,319,373
Jeans_111.jpg,320,380,jeans,85,183,228,371
Jeans_112.jpg,239,380,jeans,28,200,195,380
Jeans_114.jpg,225,225,jeans,105,18,216,146
Jeans_115.jpg,225,225,jeans,108,41,219,194
Jeans_116.jpg,225,225,jeans,125,109,202,224
Jeans_117.jpg,225,225,jeans,75,2,145,148
Jeans_118.jpg,208,242,jeans,15,36,185,230
Jeans_120.jpg,233,216,jeans,127,28,232,204
Jeans_121.jpg,225,225,jeans,5,6,103,113
Jeans_122.jpg,225,225,jeans,48,9,183,186
Jeans_123.jpg,225,225,jeans,42,16,182,206
Jeans_124.jpg,225,224,jeans,23,10,225,214
Jeans_126.jpg,222,227,jeans,24,77,84,163
Jeans_127.jpg,225,225,jeans,1,15,137,105
Jeans_128.jpg,225,225,jeans,85,48,156,121
Jeans_130.jpg,225,225,jeans,48,21,170,192
Jeans_131.jpg,224,224,jeans,15,1,106,97
Jeans_132.jpg,225,225,jeans,39,16,192,206
Jeans_133.jpg,225,225,jeans,31,13,206,210
Jeans_134.jpg,225,225,jeans,45,28,191,216
Jeans_135.jpg,225,225,jeans,103,11,204,89
Jeans_136.jpg,225,225,jeans,70,31,210,209
Jeans_137.jpg,225,225,jeans,43,44,156,125
Jeans_138.jpg,225,225,jeans,50,36,187,186
Jeans_140.jpg,225,225,jeans,66,22,159,106
Jeans_141.jpg,224,225,jeans,55,70,143,125
Jeans_143.jpg,225,225,jeans,42,28,173,203
Jeans_144.jpg,225,225,jeans,70,86,145,140
Jeans_145.jpg,225,225,jeans,46,21,156,145
Jeans_146.jpg,225,225,jeans,120,101,223,223
Jeans_147.jpg,225,225,jeans,60,19,154,117
Jeans_148.jpg,225,225,jeans,63,22,161,135
Jeans_149.jpg,314,380,jeans,82,1,233,359
Jeans_150.jpg,225,225,jeans,73,29,157,195
shirts_001.jpg,225,225,shirts,21,1,201,206
shirts_002.jpg,278,340,shirts,29,1,260,331
shirts_003.jpg,274,340,shirts,40,82,242,218
shirts_005.jpg,290,340,shirts,1,12,285,310
shirts_006.jpg,296,380,shirts,63,129,215,297
shirts_007.jpg,300,380,shirts,4,93,277,308
shirts_008.jpg,307,380,shirts,48,42,214,199
shirts_009.jpg,316,380,shirts,22,1,278,335
shirts_010.jpg,225,225,shirts,53,54,180,221
shirts_011.jpg,320,380,shirts,13,32,292,371
shirts_013.jpg,278,380,shirts,93,78,246,310
shirts_014.jpg,304,380,shirts,1,75,252,334
shirts_017.jpg,273,380,shirts,7,124,215,362
shirts_018.jpg,319,380,shirts,60,68,276,298
shirts_019.jpg,225,225,shirts,12,1,220,221
shirts_020.jpg,310,380,shirts,37,73,264,305
shirts_021.jpg,225,225,shirts,23,7,198,221
shirts_022.jpg,279,380,shirts,16,1,277,333
shirts_023.jpg,311,380,shirts,44,121,242,276
shirts_024.jpg,306,380,shirts,14,93,289,293
shirts_025.jpg,316,380,shirts,35,96,265,290
shirts_026.jpg,225,225,shirts,17,18,209,225
shirts_027.jpg,210,240,shirts,15,40,189,236
shirts_028.jpg,225,225,shirts,12,5,216,217
shirts_029.jpg,225,225,shirts,20,46,181,208
shirts_030.jpg,225,225,shirts,54,60,177,193
shirts_031.jpg,225,225,shirts,24,19,211,225
shirts_032.jpg,225,225,shirts,6,29,209,201
shirts_033.jpg,225,225,shirts,43,53,224,199
shirts_034.jpg,225,225,shirts,28,32,203,184
shirts_035.jpg,225,225,shirts,7,9,179,219
shirts_037.jpg,225,225,shirts,15,1,216,225
shirts_038.jpg,225,225,shirts,20,57,135,173
shirts_039.jpg,225,225,shirts,22,1,220,222
shirts_040.jpg,208,243,shirts,71,51,208,237
shirts_041.jpg,225,225,shirts,32,1,192,207
shirts_044.jpg,225,225,shirts,51,68,172,190
shirts_047.jpg,225,225,shirts,46,5,195,215
shirts_049.jpg,225,225,shirts,6,20,221,217
shirts_051.jpg,202,250,shirts,16,83,186,241
shirts_052.jpg,225,225,shirts,57,62,219,221
shirts_053.jpg,225,225,shirts,31,17,186,199
shirts_054.jpg,208,242,shirts,43,75,186,212
shirts_056.jpg,212,238,shirts,40,77,159,194
shirts_057.jpg,206,244,shirts,28,27,173,194
shirts_058.jpg,225,225,shirts,97,11,221,197
shirts_059.jpg,225,225,shirts,29,1,190,219
shirts_061.jpg,225,225,shirts,32,9,206,220
shirts_062.jpg,218,231,shirts,32,53,136,170
shirts_063.jpg,210,240,shirts,30,65,200,222
shirts_064.jpg,224,224,shirts,42,51,188,214
shirts_066.jpg,225,225,shirts,20,8,194,199
shirts_067.jpg,210,240,shirts,21,20,194,215
shirts_068.jpg,205,246,shirts,15,26,205,246
shirts_069.jpg,225,225,shirts,12,9,220,203
shirts_070.jpg,206,245,shirts,44,17,169,214
shirts_071.jpg,206,244,shirts,25,18,187,207
shirts_073.jpg,232,217,shirts,100,1,232,195
shirts_075.jpg,203,249,shirts,26,29,179,213
shirts_076.jpg,225,225,shirts,36,28,184,200
shirts_077.jpg,225,225,shirts,43,14,199,181
shirts_078.jpg,216,233,shirts,82,46,125,107
shirts_080.jpg,225,225,shirts,84,40,139,123
shirts_081.jpg,275,183,shirts,6,7,125,183
shirts_082.jpg,214,235,shirts,16,1,202,235
shirts_084.jpg,225,225,shirts,36,20,177,185
shirts_085.jpg,203,249,shirts,31,27,172,163
shirts_086.jpg,304,166,shirts,8,8,157,159
shirts_087.jpg,284,177,shirts,64,50,194,177
shirts_088.jpg,203,248,shirts,23,4,183,202
shirts_089.jpg,225,225,shirts,30,15,206,201
shirts_090.jpg,225,225,shirts,42,10,191,193
shirts_091.jpg,225,225,shirts,78,73,149,179
shirts_092.jpg,225,225,shirts,52,27,183,191
shirts_093.jpg,202,249,shirts,41,59,170,200
shirts_094.jpg,309,163,shirts,4,39,118,163
shirts_095.jpg,262,192,shirts,96,47,182,114
shirts_096.jpg,225,225,shirts,48,42,156,190
shirts_097.jpg,225,225,shirts,23,12,197,225
shirts_098.jpg,225,225,shirts,56,51,166,206
shirts_099.jpg,225,225,shirts,37,10,181,180
shirts_100.jpg,225,225,shirts,72,76,157,205
shirts_104.jpg,225,225,shirts,70,71,147,173
shirts_105.jpg,225,225,shirts,39,24,184,161
shirts_106.jpg,210,240,shirts,51,59,154,201
shirts_107.jpg,225,225,shirts,17,23,193,218
shirts_108.jpg,225,225,shirts,35,21,201,203
shirts_109.jpg,214,236,shirts,22,1,195,220
shirts_110.jpg,225,225,shirts,21,8,195,216
shirts_111.jpg,320,380,shirts,17,42,306,380
shirts_112.jpg,304,380,shirts,71,87,304,346
shirts_113.jpg,278,380,shirts,71,87,270,330
shirts_114.jpg,304,380,shirts,27,86,257,360
shirts_115.jpg,298,380,shirts,15,76,223,281
shirts_116.jpg,314,380,shirts,37,102,246,308
shirts_118.jpg,319,380,shirts,36,71,251,302
shirts_121.jpg,306,380,shirts,1,104,296,304
shirts_122.jpg,316,380,shirts,46,112,261,308
shirts_125.jpg,225,225,shirts,60,79,185,201
shirts_126.jpg,202,250,shirts,22,83,178,223
shirts_127.jpg,225,225,shirts,1,44,85,216
shirts_128.jpg,208,242,shirts,61,82,193,226
shirts_129.jpg,212,238,shirts,60,79,163,189
shirts_130.jpg,210,240,shirts,8,41,179,226
shirts_131.jpg,206,244,shirts,25,50,175,222
shirts_132.jpg,225,225,shirts,12,40,184,216
shirts_133.jpg,225,225,shirts,1,27,106,209
shirts_134.jpg,225,225,shirts,1,34,218,183
shirts_137.jpg,225,225,shirts,25,12,204,195
shirts_138.jpg,225,225,shirts,5,12,190,178
shirts_139.jpg,210,240,shirts,26,78,196,218
shirts_140.jpg,205,246,shirts,34,81,166,204
shirts_141.jpg,212,238,shirts,54,59,146,164
shirts_142.jpg,225,225,shirts,38,18,194,207
shirts_144.jpg,239,211,shirts,49,56,199,172
shirts_145.jpg,203,248,shirts,21,5,197,241
shirts_146.jpg,242,208,shirts,75,71,175,205
shirts_148.jpg,206,244,shirts,40,28,182,208
shirts_149.jpg,225,225,shirts,53,21,188,211
shirts_150.jpg,318,159,shirts,122,47,186,119
shorts_001.jpg,286,380,shorts,90,214,250,342
shorts_003.jpg,225,225,shorts,75,16,149,78
shorts_004.jpg,225,225,shorts,68,33,168,131
shorts_008.jpg,225,225,shorts,22,20,207,199
shorts_009.jpg,225,225,shorts,51,53,184,176
shorts_011.jpg,225,225,shorts,22,1,214,223
shorts_012.jpg,225,225,shorts,43,112,149,199
shorts_013.jpg,225,225,shorts,57,15,161,121
shorts_014.jpg,318,159,shorts,112,34,215,133
shorts_015.jpg,224,224,shorts,54,19,173,115
shorts_016.jpg,225,225,shorts,16,3,218,209
shorts_018.jpg,225,225,shorts,18,15,220,207
shorts_019.jpg,225,225,shorts,18,7,208,211
shorts_020.jpg,225,225,shorts,67,5,160,90
shorts_021.jpg,225,225,shorts,32,1,205,220
shorts_023.jpg,225,225,shorts,63,33,153,130
shorts_026.jpg,225,225,shorts,26,9,204,221
shorts_027.jpg,225,225,shorts,41,1,208,221
shorts_028.jpg,225,225,shorts,7,8,220,214
shorts_029.jpg,225,225,shorts,3,1,225,225
shorts_030.jpg,318,159,shorts,166,79,232,154
shorts_031.jpg,225,225,shorts,24,40,201,183
shorts_032.jpg,225,225,shorts,90,77,144,122
shorts_033.jpg,205,246,shorts,57,18,140,100
shorts_034.jpg,225,225,shorts,8,4,216,217
shorts_036.jpg,225,225,shorts,1,15,221,215
shorts_037.jpg,225,225,shorts,8,16,210,199
shorts_038.jpg,225,225,shorts,28,71,184,179
shorts_041.jpg,225,225,shorts,60,12,164,110
shorts_042.jpg,225,225,shorts,1,1,224,225
shorts_043.jpg,225,225,shorts,64,120,156,187
shorts_044.jpg,225,225,shorts,26,1,211,224
shorts_045.jpg,225,225,shorts,32,34,184,191
shorts_047.jpg,225,225,shorts,1,19,213,205
shorts_048.jpg,218,231,shorts,6,7,212,223
shorts_049.jpg,202,249,shorts,73,37,159,133
shorts_050.jpg,202,250,shorts,28,20,191,239
shorts_052.jpg,225,225,shorts,41,1,211,223
shorts_053.jpg,275,183,shorts,80,5,191,183
shorts_054.jpg,206,244,shorts,1,29,201,222
shorts_055.jpg,220,229,shorts,19,1,203,221
shorts_056.jpg,225,225,shorts,76,5,144,73
shorts_057.jpg,225,225,shorts,61,1,163,78
shorts_058.jpg,225,225,shorts,52,33,160,168
shorts_059.jpg,225,225,shorts,63,10,149,129
shorts_060.jpg,225,225,shorts,7,37,215,196
shorts_062.jpg,225,225,shorts,64,14,155,107
shorts_064.jpg,225,225,shorts,63,133,156,225
shorts_065.jpg,224,224,shorts,3,30,224,198
shorts_066.jpg,210,240,shorts,31,24,179,211
shorts_067.jpg,225,225,shorts,12,8,208,225
shorts_068.jpg,225,225,shorts,34,82,132,146
shorts_069.jpg,211,239,shorts,14,2,205,237
shorts_070.jpg,225,225,shorts,24,1,202,224
shorts_072.jpg,225,225,shorts,63,8,167,76
shorts_073.jpg,266,190,shorts,29,1,250,185
shorts_074.jpg,225,225,shorts,81,4,159,106
shorts_075.jpg,218,231,shorts,49,21,168,97
shorts_076.jpg,224,224,shorts,57,9,148,103
shorts_077.jpg,225,225,shorts,8,1,217,224
shorts_078.jpg,225,225,shorts,51,1,170,97
shorts_079.jpg,225,225,shorts,15,16,207,203
shorts_080.jpg,225,225,shorts,3,11,225,208
shorts_081.jpg,225,225,shorts,20,21,195,211
shorts_082.jpg,225,225,shorts,67,21,155,112
shorts_083.jpg,225,225,shorts,20,1,218,220
shorts_085.jpg,225,225,shorts,1,89,140,207
shorts_086.jpg,245,206,shorts,1,1,242,198
shorts_087.jpg,225,225,shorts,59,73,200,176
shorts_089.jpg,225,225,shorts,24,30,205,204
shorts_090.jpg,277,182,shorts,118,40,248,155
shorts_091.jpg,225,225,shorts,22,1,213,222
shorts_092.jpg,250,202,shorts,48,31,203,186
shorts_093.jpg,222,227,shorts,1,1,217,221
shorts_094.jpg,225,225,shorts,75,108,140,159
shorts_095.jpg,225,225,shorts,8,15,224,210
shorts_097.jpg,202,249,shorts,50,16,147,100
shorts_098.jpg,225,225,shorts,22,35,206,192
shorts_099.jpg,225,225,shorts,78,8,157,70
shorts_100.jpg,203,249,shorts,35,18,127,129
shorts_101.jpg,225,225,shorts,46,32,187,196
shorts_102.jpg,225,225,shorts,38,51,179,189
shorts_103.jpg,225,225,shorts,77,100,136,170
shorts_104.jpg,225,225,shorts,10,1,225,224
shorts_105.jpg,225,225,shorts,71,2,156,92
shorts_106.jpg,225,225,shorts,45,26,197,196
shorts_107.jpg,300,168,shorts,99,41,198,133
shorts_108.jpg,202,250,shorts,34,9,170,176
shorts_109.jpg,206,245,shorts,78,22,174,96
shorts_110.jpg,225,225,shorts,16,12,216,219
shorts_111.jpg,225,225,shorts,87,115,141,171
shorts_112.jpg,211,239,shorts,19,8,191,239
shorts_113.jpg,275,183,shorts,86,4,173,89
shorts_114.jpg,275,183,shorts,52,18,216,164
shorts_115.jpg,212,237,shorts,104,40,212,196
shorts_117.jpg,225,225,shorts,33,52,210,179
shorts_119.jpg,256,197,shorts,59,88,206,193
shorts_120.jpg,224,224,shorts,81,36,152,113
shorts_121.jpg,250,202,shorts,32,33,224,194
shorts_122.jpg,225,225,shorts,58,9,180,114
shorts_123.jpg,225,225,shorts,38,39,188,195
shorts_124.jpg,225,225,shorts,23,1,207,218
shorts_125.jpg,206,245,shorts,23,1,138,80
shorts_126.jpg,232,217,shorts,69,93,127,145
shorts_128.jpg,225,225,shorts,55,48,143,125
shorts_129.jpg,225,225,shorts,9,3,219,225
shorts_130.jpg,259,194,shorts,86,103,168,185
shorts_131.jpg,281,180,shorts,213,92,248,121
shorts_132.jpg,256,197,shorts,67,38,177,129
shorts_133.jpg,203,249,shorts,84,11,174,95
shorts_134.jpg,224,224,shorts,19,26,206,224
shorts_135.jpg,225,225,shorts,42,29,201,179
shorts_136.jpg,225,225,shorts,15,2,219,219
shorts_139.jpg,300,168,shorts,158,29,300,138
shorts_142.jpg,275,183,shorts,1,37,142,181
shorts_144.jpg,225,225,shorts,3,14,181,208
shorts_146.jpg,205,246,shorts,60,16,146,84
shorts_147.jpg,225,225,shorts,24,42,201,164
shorts_148.jpg,225,225,shorts,25,6,200,186
shorts_149.jpg,207,244,shorts,47,1,160,66
shorts_150.jpg,256,197,shorts,9,1,254,185
shorts_151.jpg,299,168,shorts,57,16,209,153
shorts_152.jpg,224,224,shorts,1,3,224,223
shorts_154.jpg,208,243,shorts,59,141,160,231
shorts_155.jpg,225,225,shorts,1,9,219,215
shorts_156.jpg,203,249,shorts,7,24,143,99
shorts_158.jpg,300,168,shorts,39,80,116,147
shorts_159.jpg,225,225,shorts,27,32,208,189
shorts_160.jpg,225,225,shorts,4,2,225,216
shorts_162.jpg,279,180,shorts,190,67,254,132
shorts_163.jpg,224,224,shorts,60,2,154,96
shorts_164.jpg,203,249,shorts,50,36,168,150
shorts_165.jpg,225,225,shorts,36,34,200,165
shorts_168.jpg,225,225,shorts,28,24,215,206
shorts_169.jpg,225,225,shorts,56,1,166,121
shorts_170.jpg,225,225,shorts,60,64,217,195
suits_001.jpg,225,225,suits,69,59,167,225
suits_002.jpg,275,292,suits,31,17,270,277
suits_003.jpg,292,292,suits,22,45,282,292
suits_004.jpg,234,292,suits,54,43,179,290
suits_007.jpg,292,292,suits,5,13,246,292
suits_008.jpg,292,292,suits,60,9,239,292
suits_011.jpg,270,292,suits,37,13,172,292
suits_012.jpg,197,261,suits,58,35,154,261
suits_014.jpg,290,292,suits,42,21,258,292
suits_016.jpg,258,292,suits,51,66,234,292
suits_017.jpg,292,292,suits,36,1,259,292
suits_018.jpg,283,292,suits,33,15,218,292
suits_019.jpg,212,261,suits,8,1,206,261
suits_020.jpg,291,292,suits,1,8,232,292
suits_021.jpg,292,292,suits,47,15,242,270
suits_023.jpg,219,292,suits,20,7,199,292
suits_024.jpg,292,292,suits,42,8,238,292
suits_025.jpg,198,261,suits,13,6,192,261
suits_026.jpg,198,255,suits,45,12,162,255
suits_027.jpg,225,225,suits,55,47,173,225
suits_028.jpg,202,250,suits,78,36,185,249
suits_030.jpg,225,225,suits,1,8,200,225
suits_031.jpg,225,225,suits,55,57,184,225
suits_032.jpg,198,255,suits,41,7,156,252
suits_035.jpg,184,273,suits,45,16,145,263
suits_036.jpg,225,225,suits,75,38,159,225
suits_037.jpg,225,225,suits,56,54,171,225
suits_038.jpg,154,328,suits,36,62,127,313
suits_040.jpg,225,225,suits,53,41,176,225
suits_041.jpg,199,253,suits,14,19,180,253
suits_042.jpg,194,259,suits,59,39,142,259
suits_043.jpg,197,256,suits,66,43,141,251
suits_044.jpg,225,225,suits,31,1,177,225
suits_045.jpg,263,192,suits,144,46,246,183
suits_048.jpg,255,198,suits,36,84,215,197
suits_049.jpg,199,254,suits,43,37,137,253
suits_050.jpg,225,225,suits,38,11,175,225
suits_052.jpg,310,163,suits,130,31,243,133
suits_053.jpg,183,275,suits,31,80,164,275
suits_054.jpg,225,225,suits,45,54,182,201
suits_055.jpg,225,225,suits,64,27,157,225
suits_056.jpg,222,227,suits,43,21,168,195
suits_057.jpg,225,225,suits,38,7,192,225
suits_058.jpg,196,257,suits,32,62,138,257
suits_059.jpg,225,225,suits,1,15,137,225
suits_060.jpg,225,225,suits,86,45,203,225
suits_061.jpg,225,225,suits,37,50,178,225
suits_062.jpg,155,324,suits,2,73,155,324
suits_063.jpg,198,255,suits,32,67,174,255
suits_065.jpg,207,244,suits,74,35,149,244
suits_066.jpg,225,225,suits,48,41,207,225
suits_067.jpg,177,284,suits,26,66,159,284
suits_068.jpg,225,225,suits,86,24,170,223
suits_069.jpg,181,278,suits,38,14,141,278
suits_070.jpg,201,251,suits,65,33,133,251
suits_071.jpg,225,225,suits,70,28,160,219
suits_072.jpg,296,170,suits,114,24,175,167
suits_073.jpg,199,253,suits,56,37,136,249
suits_074.jpg,176,286,suits,46,45,138,284
suits_075.jpg,275,183,suits,128,40,237,183
suits_076.jpg,265,190,suits,42,48,151,190
suits_077.jpg,189,267,suits,10,22,173,267
suits_079.jpg,225,225,suits,9,52,124,225
suits_080.jpg,275,183,suits,70,35,198,183
suits_081.jpg,200,252,suits,52,40,155,242
suits_082.jpg,205,246,suits,35,18,187,246
suits_084.jpg,210,240,suits,37,63,163,240
suits_085.jpg,154,328,suits,43,56,125,311
suits_086.jpg,166,304,suits,11,49,156,304
suits_087.jpg,194,259,suits,36,54,153,259
suits_088.jpg,184,274,suits,36,60,166,271
suits_089.jpg,225,225,suits,54,53,198,217
suits_090.jpg,225,225,suits,93,42,201,225
suits_091.jpg,225,225,suits,59,60,172,225
suits_092.jpg,187,270,suits,22,21,178,270
suits_093.jpg,201,251,suits,55,36,147,247
suits_094.jpg,170,296,suits,25,68,142,296
suits_095.jpg,191,264,suits,58,36,147,264
suits_096.jpg,225,224,suits,29,7,150,224
suits_099.jpg,214,235,suits,39,46,179,232
suits_100.jpg,225,225,suits,58,26,173,205
suits_103.jpg,198,255,suits,22,24,189,255
suits_104.jpg,225,225,suits,53,47,168,225
suits_105.jpg,200,252,suits,60,36,151,247
suits_106.jpg,225,225,suits,73,11,170,225
suits_107.jpg,225,225,suits,42,8,188,225
suits_108.jpg,197,256,suits,27,58,162,248
suits_109.jpg,199,253,suits,24,30,171,253
suits_112.jpg,275,183,suits,110,30,170,179
suits_113.jpg,259,194,suits,20,28,109,194
suits_114.jpg,201,251,suits,51,31,172,251
suits_115.jpg,225,225,suits,65,47,177,225
suits_116.jpg,224,224,suits,71,4,157,224
suits_117.jpg,275,183,suits,37,29,242,183
suits_119.jpg,222,227,suits,1,118,222,210
suits_120.jpg,178,283,suits,13,16,176,283
suits_121.jpg,259,194,suits,70,41,177,194
suits_122.jpg,189,267,suits,38,7,162,263
suits_123.jpg,194,259,suits,33,1,165,254
suits_124.jpg,198,255,suits,1,36,150,255
suits_125.jpg,225,225,suits,89,62,158,225
suits_126.jpg,194,260,suits,30,30,187,260
suits_129.jpg,225,225,suits,60,49,172,225
suits_130.jpg,183,275,suits,58,43,146,274
suits_131.jpg,184,274,suits,28,61,155,274
suits_132.jpg,194,259,suits,49,50,157,259
suits_133.jpg,205,246,suits,41,23,169,246
suits_134.jpg,225,225,suits,7,4,145,194
suits_135.jpg,197,256,suits,13,73,197,241
suits_136.jpg,330,153,suits,179,65,321,153
suits_138.jpg,183,275,suits,25,51,168,269
suits_139.jpg,225,225,suits,9,42,146,206
suits_140.jpg,316,159,suits,117,20,244,159
suits_141.jpg,225,225,suits,54,65,185,225
suits_142.jpg,186,271,suits,1,123,186,267
suits_143.jpg,232,217,suits,53,77,162,211
suits_144.jpg,223,226,suits,38,65,186,225
suits_146.jpg,225,225,suits,64,45,183,222
suits_148.jpg,225,225,suits,73,49,210,225
suits_152.jpg,183,275,suits,16,67,174,275
suits_153.jpg,225,225,suits,30,5,206,225
suits_154.jpg,183,275,suits,61,59,146,239
suits_155.jpg,201,251,suits,18,26,97,251
suits_157.jpg,203,249,suits,45,18,167,242
suits_158.jpg,179,281,suits,52,36,131,248
suits_159.jpg,207,243,suits,9,4,191,243
tees_002.jpg,308,380,tees,34,88,234,314
tees_003.jpg,304,380,tees,93,101,300,380
tees_004.jpg,320,380,tees,75,70,251,260
tees_005.jpg,225,225,tees,40,13,196,225
tees_006.jpg,225,225,trousers,29,14,214,221
tees_007.jpg,225,225,tees,40,24,202,209
tees_009.jpg,225,225,tees,42,15,216,225
tees_010.jpg,225,225,tees,36,15,205,224
tees_011.jpg,225,225,tees,13,10,210,219
tees_012.jpg,225,225,tees,21,1,206,216
tees_014.jpg,212,238,tees,18,2,212,236
tees_016.jpg,225,225,tees,25,8,200,225
tees_017.jpg,225,225,tees,29,3,198,225
tees_018.jpg,225,225,tees,25,4,198,206
tees_019.jpg,225,225,tees,8,10,110,116
tees_020.jpg,225,225,tees,28,10,207,210
tees_023.jpg,225,225,tees,20,8,219,210
tees_024.jpg,225,225,tees,7,7,217,216
tees_025.jpg,225,225,tees,26,8,204,219
tees_026.jpg,225,225,tees,17,5,211,220
tees_028.jpg,225,225,tees,113,54,208,190
tees_029.jpg,221,228,tees,31,3,191,218
tees_032.jpg,213,236,tees,19,5,207,235
tees_033.jpg,225,225,tees,12,5,216,225
tees_034.jpg,225,225,tees,48,43,176,182
tees_035.jpg,225,225,tees,19,6,217,219
tees_036.jpg,225,225,tees,4,4,225,223
tees_037.jpg,225,225,tees,25,5,211,225
tees_039.jpg,203,248,tees,5,15,190,248
tees_041.jpg,263,191,tees,39,1,211,191
tees_042.jpg,225,225,tees,29,14,210,225
tees_044.jpg,235,214,trousers,112,43,228,210
tees_047.jpg,225,225,tees,35,10,197,200
tees_048.jpg,225,225,tees,62,60,169,186
tees_049.jpg,225,225,tees,1,10,225,225
tees_050.jpg,225,225,tees,10,1,215,220
tees_051.jpg,225,225,tees,42,28,203,206
tees_052.jpg,205,246,tees,9,10,200,234
tees_053.jpg,225,225,tees,13,1,220,224
tees_054.jpg,225,225,tees,4,10,225,224
tees_055.jpg,225,225,tees,18,27,104,85
tees_056.jpg,308,164,tees,93,1,256,164
tees_058.jpg,202,249,tees,96,1,197,133
tees_059.jpg,247,204,tees,30,11,227,204
tees_060.jpg,212,238,tees,17,2,205,238
tees_061.jpg,263,191,tees,46,18,214,190
tees_063.jpg,290,174,tees,81,4,213,174
tees_064.jpg,275,183,tees,92,16,187,167
tees_065.jpg,204,247,tees,1,42,179,237
tees_066.jpg,225,225,tees,26,13,182,218
tees_067.jpg,225,225,tees,1,6,223,220
tees_068.jpg,236,214,tees,81,33,227,195
tees_069.jpg,225,225,tees,65,64,186,218
tees_071.jpg,257,196,tees,121,23,252,182
tees_072.jpg,225,225,tees,41,25,175,184
tees_073.jpg,225,225,tees,41,46,178,224
tees_074.jpg,229,220,tees,29,59,148,198
tees_075.jpg,225,225,tees,28,69,115,184
tees_076.jpg,267,189,tees,35,30,227,185
tees_077.jpg,273,185,tees,157,26,266,170
tees_079.jpg,225,225,tees,54,74,102,165
tees_080.jpg,290,174,tees,108,32,198,114
tees_081.jpg,225,225,tees,25,23,199,214
tees_082.jpg,225,225,tees,10,1,216,216
tees_083.jpg,225,225,tees,33,18,201,217
tees_085.jpg,228,221,tees,4,15,228,213
tees_086.jpg,281,180,tees,32,54,117,164
tees_087.jpg,225,225,tees,2,6,225,223
tees_088.jpg,224,224,tees,28,18,187,224
tees_089.jpg,313,161,tees,156,2,293,158
tees_090.jpg,274,184,tees,54,11,221,178
tees_091.jpg,243,207,tees,16,32,123,163
tees_092.jpg,225,225,tees,19,8,203,225
tees_093.jpg,230,219,tees,16,6,220,218
tees_094.jpg,225,224,tees,17,74,196,224
tees_095.jpg,275,183,tees,69,12,198,173
tees_096.jpg,225,225,tees,1,58,112,204
tees_098.jpg,225,225,tees,26,9,192,205
tees_100.jpg,225,225,tees,19,1,208,225
tees_101.jpg,225,225,tees,47,48,202,200
tees_102.jpg,267,189,tees,71,55,165,178
tees_103.jpg,300,168,tees,139,67,222,168
tees_104.jpg,225,225,tees,32,9,194,224
tees_106.jpg,225,225,tees,12,2,210,225
tees_107.jpg,225,225,tees,31,15,187,225
tees_109.jpg,225,225,tees,38,31,204,214
tees_111.jpg,303,166,tees,158,50,272,166
tees_112.jpg,225,225,tees,46,26,184,213
tees_113.jpg,225,225,tees,58,54,156,167
tees_114.jpg,224,224,tees,25,26,204,217
tees_115.jpg,246,205,tees,58,59,201,182
tees_116.jpg,225,225,tees,66,49,164,195
tees_117.jpg,225,225,tees,29,4,190,205
tees_118.jpg,307,164,tees,32,71,159,164
tees_119.jpg,255,198,tees,5,58,118,181
tees_120.jpg,265,190,tees,149,29,265,164
tees_121.jpg,300,168,tees,32,62,161,168
tees_122.jpg,208,243,tees,54,58,176,186
tees_125.jpg,225,225,tees,67,63,166,175
tees_127.jpg,224,224,tees,44,28,189,215
tees_128.jpg,225,225,tees,21,91,151,225
tees_129.jpg,205,246,tees,26,28,185,229
tees_131.jpg,225,225,tees,39,80,117,161
tees_132.jpg,225,225,tees,26,2,198,198
tees_133.jpg,225,225,tees,5,4,220,225
tees_134.jpg,240,180,tees,11,91,144,180
tees_136.jpg,242,209,tees,16,54,146,209
tees_137.jpg,224,224,tees,28,7,203,214
tees_138.jpg,225,225,tees,56,74,138,184
tees_139.jpg,225,225,tees,45,7,189,225
tees_140.jpg,225,225,tees,8,13,224,210
tees_141.jpg,225,225,tees,42,50,124,172
tees_142.jpg,265,190,tees,21,36,165,156
tees_143.jpg,259,194,tees,19,72,132,180
tees_144.jpg,224,224,tees,26,2,200,224
tees_145.jpg,225,225,tees,23,6,190,220
tees_146.jpg,225,225,tees,21,11,202,216
tees_149.jpg,225,225,tees,65,56,166,196
tees_150.jpg,225,225,tees,54,52,177,188
Tops_001.jpg,304,380,tops,79,100,304,341
Tops_002.jpg,357,460,tops,51,158,357,460
Tops_003.jpg,367,460,tops,47,146,341,400
Tops_004.jpg,366,460,tops,29,168,354,412
Tops_005.jpg,383,460,tops,89,155,353,374
Tops_007.jpg,300,380,tops,11,85,276,305
Tops_009.jpg,207,243,tops,53,50,155,159
Tops_011.jpg,225,225,tops,29,69,194,208
Tops_012.jpg,314,380,tops,33,108,253,260
Tops_013.jpg,317,380,tops,60,100,251,301
Tops_014.jpg,225,225,tops,65,62,179,142
Tops_015.jpg,225,225,tops,25,33,178,183
Tops_016.jpg,225,225,tops,80,34,200,194
Tops_017.jpg,225,225,tops,50,61,196,198
Tops_018.jpg,204,247,tops,65,21,141,123
Tops_019.jpg,225,225,tops,15,9,225,207
Tops_020.jpg,225,225,tops,65,58,156,141
Tops_021.jpg,290,174,tops,87,34,201,174
Tops_022.jpg,265,190,tops,130,54,249,174
Tops_023.jpg,225,225,tops,17,38,84,139
Tops_024.jpg,222,227,tops,59,41,192,184
Tops_025.jpg,225,225,tops,56,52,173,185
Tops_026.jpg,262,192,tops,71,54,187,191
Tops_027.jpg,225,224,tops,32,12,198,200
Tops_028.jpg,225,225,tops,82,58,188,188
Tops_029.jpg,218,218,tops,54,56,166,180
Tops_030.jpg,239,211,tops,81,56,182,143
Tops_031.jpg,259,194,tops,146,68,259,169
Tops_032.jpg,224,224,tops,63,67,163,192
Tops_033.jpg,225,225,tops,44,50,184,200
Tops_036.jpg,225,225,tops,47,54,161,193
Tops_037.jpg,225,225,tops,28,23,169,119
Tops_038.jpg,225,225,tops,67,68,174,169
Tops_039.jpg,225,225,tops,84,41,199,150
Tops_040.jpg,225,225,tops,90,30,225,210
Tops_041.jpg,203,249,tops,31,1,175,220
Tops_042.jpg,210,240,tops,64,15,145,112
Tops_043.jpg,205,246,tops,60,73,157,178
Tops_045.jpg,225,225,tops,35,19,211,165
Tops_046.jpg,290,174,tops,90,48,192,162
Tops_047.jpg,222,227,tops,62,40,168,172
Tops_048.jpg,224,224,tops,81,34,147,111
Tops_049.jpg,202,250,tops,49,66,148,161
Tops_050.jpg,225,225,tops,72,57,180,158
Tops_051.jpg,203,249,tops,28,27,145,225
Tops_053.jpg,225,225,tops,70,23,173,164
Tops_054.jpg,216,233,tops,47,62,159,184
Tops_055.jpg,265,190,tops,98,70,249,190
Tops_057.jpg,273,184,tops,103,64,242,184
Tops_059.jpg,225,225,tops,84,8,174,152
Tops_060.jpg,251,201,tops,38,11,251,163
Tops_062.jpg,250,202,tops,53,59,141,200
Tops_063.jpg,225,225,tops,102,52,169,115
Tops_064.jpg,225,225,tops,76,29,152,160
Tops_066.jpg,252,200,tops,62,9,186,200
Tops_067.jpg,310,163,tops,119,4,183,53
Tops_070.jpg,225,225,tops,71,53,142,155
Tops_071.jpg,224,225,tops,49,40,179,175
Tops_073.jpg,275,183,tops,127,49,235,130
Tops_074.jpg,225,225,tops,8,39,225,213
Tops_076.jpg,225,225,tops,21,31,219,224
Tops_077.jpg,275,183,tops,75,42,198,143
Tops_100.jpg,225,225,tops,6,26,101,166
Tops_101.jpg,225,225,tops,38,7,187,132
Tops_102.jpg,300,168,tops,154,11,300,133
Tops_103.jpg,225,225,tops,28,19,191,194
Tops_78.jpg,303,380,tops,36,142,287,346
Tops_79.jpg,295,380,tops,25,35,281,356
Tops_80.jpg,286,380,tops,24,66,286,285
Tops_82.jpg,304,380,tops,60,89,231,283
Tops_83.jpg,207,243,tops,20,56,200,230
Tops_85.jpg,225,225,tops,28,21,214,204
Tops_86.jpg,225,225,tops,58,51,175,166
Tops_88.jpg,225,225,tops,25,19,219,209
Tops_89.jpg,225,225,tops,34,79,189,212
Tops_90.jpg,224,224,tops,28,3,205,106
Tops_91.jpg,301,167,tops,111,49,198,167
Tops_92.jpg,225,225,tops,4,24,133,152
Tops_93.jpg,225,225,tops,67,42,160,146
Tops_94.jpg,225,225,tops,57,27,191,198
Tops_95.jpg,225,225,tops,22,14,192,177
Tops_96.jpg,225,225,tops,49,42,175,125
Tops_99.jpg,225,225,tops,24,3,203,184
Tops_{N104} (10).jpg,285,380,tops,47,137,278,264
Tops_{N104} (12).jpg,285,380,tops,52,60,191,179
Tops_{N104} (13).jpg,259,380,tops,8,87,222,249
Tops_{N104} (14).jpg,286,380,tops,22,59,226,278
Tops_{N104} (15).jpg,285,380,tops,14,117,240,301
Tops_{N104} (16).jpg,263,380,tops,9,143,220,308
Tops_{N104} (17).jpg,262,380,tops,17,124,196,282
Tops_{N104} (18).jpg,300,380,tops,1,132,262,320
Tops_{N104} (2).jpg,259,380,tops,55,133,252,310
Tops_{N104} (20).jpg,225,225,tops,33,59,160,199
Tops_{N104} (21).jpg,225,225,tops,23,58,202,199
Tops_{N104} (3).jpg,285,380,tops,14,101,273,329
Tops_{N104} (4).jpg,267,380,tops,5,189,267,292
Tops_{N104} (5).jpg,285,380,tops,27,151,272,321
Tops_{N104} (6).jpg,285,380,tops,21,91,230,262
Tops_{N104}.jpg,380,380,tops,40,80,358,291
Tops_{N105} (1).jpg,285,380,tops,43,92,184,328
Tops_{N105} (10).jpg,286,380,tops,44,101,222,288
Tops_{N105} (11).jpg,347,460,tops,1,121,240,357
Tops_{N105} (12).jpg,255,380,tops,26,29,199,269
Tops_{N105} (13).jpg,380,380,tops,19,25,236,379
Tops_{N105} (14).jpg,353,380,tops,1,43,353,373
Tops_{N105} (16).jpg,272,380,tops,18,47,255,301
Tops_{N105} (17).jpg,380,380,tops,188,81,376,343
Tops_{N105} (18).jpg,285,380,tops,96,98,255,260
Tops_{N105} (19).jpg,253,380,tops,24,83,212,282
Tops_{N105} (2).jpg,285,380,tops,63,82,221,301
Tops_{N105} (20).jpg,256,380,tops,46,77,205,316
Tops_{N105} (21).jpg,238,380,tops,58,52,190,205
Tops_{N105} (22).jpg,225,225,tops,110,77,194,225
Tops_{N105} (23).jpg,225,225,tops,52,32,178,173
Tops_{N105} (3).jpg,314,380,tops,52,85,252,280
Tops_{N105} (5).jpg,225,225,tops,61,73,181,185
Tops_{N105} (6).jpg,317,380,tops,76,97,240,293
Tops_{N105} (8).jpg,225,225,tops,67,72,165,191
Tops_{N105} (9).jpg,225,225,tops,38,19,169,140
Tops_{N105}.jpg,225,225,tops,63,55,158,134
Trousers_001.jpg,302,380,trousers,67,1,233,379
Trousers_002.jpg,287,380,trousers,59,2,213,380
Trousers_003.jpg,315,340,trousers,88,9,226,340
Trousers_004.jpg,280,420,trousers,40,1,230,416
Trousers_006.jpg,316,380,trousers,112,121,231,367
Trousers_008.jpg,290,380,trousers,108,115,241,372
Trousers_009.jpg,284,380,trousers,53,1,232,367
Trousers_010.jpg,225,225,trousers,60,27,165,202
Trousers_011.jpg,225,225,trousers,72,2,158,217
Trousers_012.jpg,286,380,trousers,50,1,238,376
Trousers_013.jpg,227,340,trousers,53,1,186,338
Trousers_014.jpg,206,244,trousers,123,124,183,244
Trousers_015.jpg,284,380,trousers,37,1,247,376
Trousers_016.jpg,225,225,trousers,57,1,164,222
Trousers_017.jpg,220,229,trousers,46,1,172,227
Trousers_018.jpg,205,246,trousers,52,9,153,221
Trousers_019.jpg,224,224,trousers,58,4,162,220
Trousers_021.jpg,225,225,trousers,4,1,120,192
Trousers_023.jpg,262,192,trousers,93,105,166,175
Trousers_024.jpg,225,225,trousers,9,22,112,181
Trousers_025.jpg,225,225,trousers,63,18,164,213
Trousers_026.jpg,225,225,trousers,11,13,88,185
Trousers_027.jpg,224,224,trousers,64,2,160,215
Trousers_028.jpg,225,225,trousers,78,15,153,186
Trousers_030.jpg,225,225,trousers,54,5,172,207
Trousers_031.jpg,225,225,trousers,79,120,152,212
Trousers_032.jpg,225,225,trousers,59,1,181,221
Trousers_033.jpg,225,225,trousers,49,2,172,225
Trousers_034.jpg,202,250,trousers,1,15,160,248
Trousers_035.jpg,225,225,trousers,57,1,165,215
Trousers_036.jpg,206,244,trousers,17,121,88,237
Trousers_037.jpg,225,225,trousers,1,49,131,210
Trousers_038.jpg,225,225,trousers,52,1,160,221
Trousers_039.jpg,289,174,trousers,56,61,112,155
Trousers_040.jpg,208,242,trousers,38,1,176,232
Trousers_041.jpg,205,246,trousers,33,1,166,246
Trousers_042.jpg,209,241,trousers,39,16,151,215
Trousers_043.jpg,225,225,trousers,46,13,174,213
Trousers_044.jpg,225,225,trousers,58,1,164,170
Trousers_045.jpg,259,194,trousers,79,101,124,177
Trousers_046.jpg,222,227,trousers,72,8,150,204
Trousers_048.jpg,224,224,trousers,1,6,115,187
Trousers_050.jpg,225,225,trousers,65,5,165,222
Trousers_051.jpg,225,225,trousers,82,22,159,190
Trousers_052.jpg,220,229,trousers,45,3,166,229
Trousers_056.jpg,218,231,trousers,56,1,157,226
Trousers_057.jpg,225,225,trousers,62,20,161,188
Trousers_058.jpg,259,194,trousers,140,89,213,194
Trousers_060.jpg,225,225,trousers,50,2,179,218
Trousers_061.jpg,225,225,trousers,58,22,177,215
Trousers_062.jpg,225,225,trousers,68,9,160,225
Trousers_063.jpg,318,158,trousers,63,25,118,141
Trousers_065.jpg,275,183,trousers,44,35,226,181
Trousers_066.jpg,205,246,trousers,49,29,146,213
Trousers_067.jpg,225,225,trousers,76,4,160,180
Trousers_068.jpg,202,249,trousers,49,19,142,218
Trousers_069.jpg,225,225,trousers,52,2,165,225
Trousers_070.jpg,220,229,trousers,63,3,153,229
Trousers_071.jpg,225,225,trousers,135,7,213,157
Trousers_073.jpg,225,225,trousers,115,6,220,196
Trousers_074.jpg,206,244,trousers,139,124,185,244
Trousers_075.jpg,225,225,trousers,81,16,148,225
Trousers_078.jpg,220,229,trousers,66,95,135,229
Trousers_080.jpg,225,225,trousers,85,7,144,182
Trousers_081.jpg,225,225,trousers,53,1,167,206
Trousers_082.jpg,220,229,trousers,66,1,152,228
Trousers_083.jpg,224,224,trousers,69,1,164,221
Trousers_084.jpg,225,225,trousers,12,1,204,219
Trousers_085.jpg,289,174,trousers,192,1,263,142
Trousers_086.jpg,225,225,trousers,66,1,168,224
Trousers_087.jpg,225,225,trousers,52,72,156,225
Trousers_088.jpg,224,224,trousers,38,1,193,224
Trousers_089.jpg,210,240,trousers,85,77,149,207
Trousers_091.jpg,220,229,trousers,60,1,152,227
Trousers_092.jpg,259,194,trousers,64,1,186,182
Trousers_093.jpg,289,174,trousers,169,1,250,135
Trousers_094.jpg,225,225,trousers,92,22,216,199
Trousers_095.jpg,225,225,trousers,47,1,165,201
Trousers_096.jpg,225,225,trousers,84,86,154,217
Trousers_098.jpg,226,223,trousers,78,82,147,200
Trousers_099.jpg,225,225,trousers,78,73,165,206
Trousers_100.jpg,225,225,trousers,78,102,143,221
Trousers_101.jpg,311,162,trousers,164,51,220,162
Trousers_102.jpg,224,224,trousers,83,86,144,223
Trousers_103.jpg,225,225,trousers,120,26,202,225
Trousers_104.jpg,225,225,trousers,82,113,147,225
Trousers_106.jpg,225,225,trousers,70,80,176,213
Trousers_107.jpg,225,225,trousers,51,73,128,197
Trousers_108.jpg,225,225,trousers,79,87,157,225
Trousers_109.jpg,225,225,trousers,66,2,156,225
Trousers_110.jpg,286,380,trousers,58,1,238,379
Trousers_112.jpg,225,225,trousers,69,1,150,192
Trousers_113.jpg,225,225,trousers,77,54,158,193
Trousers_114.jpg,206,244,trousers,39,2,155,222
Trousers_115.jpg,225,225,trousers,52,6,168,206
Trousers_116.jpg,225,225,trousers,43,15,169,188
Trousers_117.jpg,225,225,trousers,67,40,161,193
Trousers_118.jpg,225,225,trousers,72,1,171,221
Trousers_119.jpg,225,225,trousers,22,54,125,191
Trousers_120.jpg,225,225,trousers,19,5,110,213
Trousers_121.jpg,225,225,trousers,55,1,165,222
Trousers_123.jpg,220,229,trousers,46,1,166,229
Trousers_125.jpg,225,225,trousers,86,85,149,185
Trousers_127.jpg,225,225,trousers,77,79,124,196
Trousers_129.jpg,225,225,trousers,80,81,145,204
Trousers_132.jpg,225,225,trousers,77,76,149,209
Trousers_134.jpg,225,225,trousers,62,17,162,215
Trousers_136.jpg,203,248,trousers,54,90,154,219
Trousers_137.jpg,225,225,trousers,69,47,163,208
Trousers_138.jpg,203,248,trousers,50,43,173,209
Trousers_139.jpg,225,225,trousers,52,9,172,179
Trousers_142.jpg,225,225,trousers,66,8,154,194
Trousers_143.jpg,225,225,trousers,59,10,167,215
Trousers_144.jpg,225,225,trousers,62,1,165,203
Trousers_145.jpg,225,225,trousers,66,20,151,183
Trousers_146.jpg,225,225,trousers,68,25,151,173
Trousers_147.jpg,225,225,trousers,63,30,162,198
Trousers_149.jpg,223,226,trousers,47,7,163,176
Trousers_150.jpg,303,380,trousers,71,33,275,321
Trousers_151.jpg,225,225,trousers,17,12,189,181
